ISSS608-VAA - Take Home Exercise 02
…
5) We need to sort the data based on the categorical age group assigned in the original dataset. We can use mutate() to change the order and then use arrange() of dplyr package to sort. And then display the hold table.

order <- c("0_to_4", "5_to_9", "10_to_14", "15_to_19", "20_to_24", "25_to_29", "30_to_34", "35_to_39", "40_to_44", "45_to_49", "50_to_54", "55_to_59", "60_to_64", "65_to_69", "70_to_74", "75_to_79", "80_to_84", "85_to_89", "90_and_over")

sorted_pop <- freq_pop %>%
  mutate(AG =  factor(AG, levels = order)) %>%
  arrange(AG)
  
sorted_pop

# A tibble: 2,090 × 4
   AG     Sex     PA                      Count
   <fct>  <chr>   <chr>                   <dbl>
 1 0_to_4 Females Ang Mo Kio               2480
 2 0_to_4 Females Bedok                    4970
 3 0_to_4 Females Bishan                   1320
 4 0_to_4 Females Boon Lay                    0
 5 0_to_4 Females Bukit Batok              4400
 6 0_to_4 Females Bukit Merah              2800
 7 0_to_4 Females Bukit Panjang            2730
 8 0_to_4 Females Bukit Timah              1750
 9 0_to_4 Females Central Water Catchment     0
10 0_to_4 Females Changi                     60
# … with 2,080 more rows

6) Because the take-home exercise needs us to choose nine planning areas. So, base on the original design, I choose “Ang Mo Kio”, “Bukit Merah”, “Bukit Timah”, “Hougang”, “Jurong East”, “Kallang”, “Pasir Ris”, “Sengkang”, “Toa Payoh” nine planning areas. And then display the whole table of nine planning areas.

PA_sorted_pop <- filter(sorted_pop,PA %in% c("Ang Mo Kio","Bukit Merah","Bukit Timah","Hougang","Jurong East","Kallang","Pasir Ris","Sengkang","Toa Payoh"))
PA_sorted_pop

# A tibble: 342 × 4
   AG     Sex     PA          Count
   <fct>  <chr>   <chr>       <dbl>
 1 0_to_4 Females Ang Mo Kio   2480
 2 0_to_4 Females Bukit Merah  2800
 3 0_to_4 Females Bukit Timah  1750
 4 0_to_4 Females Hougang      4430
 5 0_to_4 Females Jurong East  1130
 6 0_to_4 Females Kallang      1810
 7 0_to_4 Females Pasir Ris    2730
 8 0_to_4 Females Sengkang     6900
 9 0_to_4 Females Toa Payoh    2550
10 0_to_4 Males   Ang Mo Kio   2530
# … with 332 more rows
…
