ISSS608-VAA - TakeHome_Ex04
…
TakeHome_Ex04

    Author

             Xu Jiajie 

pacman::p_load(ggplot2, tidyverse,readxl)

data1 <- read_excel("data/outputFile.xlsx",sheet='T1',range = 'A10:UT129')
data1

# A tibble: 119 × 566
   `Data Series` 2023 …¹ 2022 …² 2022 …³ 2022 …⁴ 2022 …⁵ 2022 …⁶ 2022 …⁷ 2022 …⁸
   <chr>           <dbl>   <dbl>   <dbl>   <dbl>   <dbl>   <dbl>   <dbl>   <dbl>
 1 Total Mercha…  4.44e7  4.99e7  5.07e7  5.32e7  5.58e7  5.85e7  6.10e7  5.96e7
 2 America (Mil…  6.27e3  6.90e3  7.53e3  7.67e3  8.00e3  8.63e3  7.88e3  8.02e3
 3 Asia (Millio…  3.02e4  3.36e4  3.47e4  3.61e4  3.77e4  4.09e4  4.32e4  4.25e4
 4 Europe (Mill…  6.43e3  7.54e3  7.24e3  7.48e3  8.17e3  7.43e3  8.30e3  7.30e3
 5 Oceania (Mil…  9.83e2  1.40e3  6.64e2  1.33e3  1.54e3  9.36e2  1.06e3  1.14e3
 6 Africa (Mill…  5.41e2  4.15e2  4.84e2  5.90e2  3.95e2  5.51e2  5.74e2  6.76e2
 7 European Uni…  4.58e3  5.06e3  4.96e3  4.69e3  5.15e3  5.13e3  5.23e3  5.14e3
 8 Belgium (Tho…  9.41e4  1.04e5  1.22e5  8.88e4  2.16e5  1.33e5  2.25e5  1.15e5
 9 Denmark (Tho…  5.75e4  6.77e4  6.74e4  6.37e4  6.18e4  1.26e5  5.58e4  5.10e4
10 France (Thou…  1.61e6  1.54e6  1.56e6  1.49e6  1.66e6  1.62e6  1.56e6  1.54e6
# … with 109 more rows, 557 more variables: `2022 May` <dbl>, `2022 Apr` <dbl>,
#   `2022 Mar` <dbl>, `2022 Feb` <dbl>, `2022 Jan` <dbl>, `2021 Dec` <dbl>,
#   `2021 Nov` <dbl>, `2021 Oct` <dbl>, `2021 Sep` <dbl>, `2021 Aug` <dbl>,
#   `2021 Jul` <dbl>, `2021 Jun` <dbl>, `2021 May` <dbl>, `2021 Apr` <dbl>,
#   `2021 Mar` <dbl>, `2021 Feb` <dbl>, `2021 Jan` <dbl>, `2020 Dec` <dbl>,
#   `2020 Nov` <dbl>, `2020 Oct` <dbl>, `2020 Sep` <dbl>, `2020 Aug` <dbl>,
#   `2020 Jul` <dbl>, `2020 Jun` <dbl>, `2020 May` <dbl>, `2020 Apr` <dbl>, …

data1A <- data1 %>% 
  separate("Data Series", c("Place", "money"), " ")

Warning: Expected 2 pieces. Additional pieces discarded in 119 rows [1, 2, 3,
4, 5, 6, 7, 8, 9, 10, 11, 12, 13, 14, 15, 16, 17, 18, 19, 20, ...].

data1A

# A tibble: 119 × 567
   Place   money 2023 …¹ 2022 …² 2022 …³ 2022 …⁴ 2022 …⁵ 2022 …⁶ 2022 …⁷ 2022 …⁸
   <chr>   <chr>   <dbl>   <dbl>   <dbl>   <dbl>   <dbl>   <dbl>   <dbl>   <dbl>
 1 Total   Merc…  4.44e7  4.99e7  5.07e7  5.32e7  5.58e7  5.85e7  6.10e7  5.96e7
 2 America (Mil…  6.27e3  6.90e3  7.53e3  7.67e3  8.00e3  8.63e3  7.88e3  8.02e3
 3 Asia    (Mil…  3.02e4  3.36e4  3.47e4  3.61e4  3.77e4  4.09e4  4.32e4  4.25e4
 4 Europe  (Mil…  6.43e3  7.54e3  7.24e3  7.48e3  8.17e3  7.43e3  8.30e3  7.30e3
 5 Oceania (Mil…  9.83e2  1.40e3  6.64e2  1.33e3  1.54e3  9.36e2  1.06e3  1.14e3
 6 Africa  (Mil…  5.41e2  4.15e2  4.84e2  5.90e2  3.95e2  5.51e2  5.74e2  6.76e2
 7 Europe… Union  4.58e3  5.06e3  4.96e3  4.69e3  5.15e3  5.13e3  5.23e3  5.14e3
 8 Belgium (Tho…  9.41e4  1.04e5  1.22e5  8.88e4  2.16e5  1.33e5  2.25e5  1.15e5
 9 Denmark (Tho…  5.75e4  6.77e4  6.74e4  6.37e4  6.18e4  1.26e5  5.58e4  5.10e4
10 France  (Tho…  1.61e6  1.54e6  1.56e6  1.49e6  1.66e6  1.62e6  1.56e6  1.54e6
# … with 109 more rows, 557 more variables: `2022 May` <dbl>, `2022 Apr` <dbl>,
#   `2022 Mar` <dbl>, `2022 Feb` <dbl>, `2022 Jan` <dbl>, `2021 Dec` <dbl>,
#   `2021 Nov` <dbl>, `2021 Oct` <dbl>, `2021 Sep` <dbl>, `2021 Aug` <dbl>,
#   `2021 Jul` <dbl>, `2021 Jun` <dbl>, `2021 May` <dbl>, `2021 Apr` <dbl>,
#   `2021 Mar` <dbl>, `2021 Feb` <dbl>, `2021 Jan` <dbl>, `2020 Dec` <dbl>,
#   `2020 Nov` <dbl>, `2020 Oct` <dbl>, `2020 Sep` <dbl>, `2020 Aug` <dbl>,
#   `2020 Jul` <dbl>, `2020 Jun` <dbl>, `2020 May` <dbl>, `2020 Apr` <dbl>, …
…
