ISSS608-VAA - TakeHome_Ex03
…
Flat_resale <- read_csv("data/2017-2022.csv")

Rows: 146783 Columns: 11
── Column specification ────────────────────────────────────────────────────────
Delimiter: ","
chr (8): month, town, flat_type, block, street_name, storey_range, flat_mode...
dbl (3): floor_area_sqm, lease_commence_date, resale_price

ℹ Use `spec()` to retrieve the full column specification for this data.
ℹ Specify the column types or set `show_col_types = FALSE` to quiet this message.

Flat_resale

# A tibble: 146,783 × 11
   month   town    flat_…¹ block stree…² store…³ floor…⁴ flat_…⁵ lease…⁶ remai…⁷
   <chr>   <chr>   <chr>   <chr> <chr>   <chr>     <dbl> <chr>     <dbl> <chr>  
 1 2017-01 ANG MO… 2 ROOM  406   ANG MO… 10 TO …      44 Improv…    1979 61 yea…
 2 2017-01 ANG MO… 3 ROOM  108   ANG MO… 01 TO …      67 New Ge…    1978 60 yea…
 3 2017-01 ANG MO… 3 ROOM  602   ANG MO… 01 TO …      67 New Ge…    1980 62 yea…
 4 2017-01 ANG MO… 3 ROOM  465   ANG MO… 04 TO …      68 New Ge…    1980 62 yea…
 5 2017-01 ANG MO… 3 ROOM  601   ANG MO… 01 TO …      67 New Ge…    1980 62 yea…
 6 2017-01 ANG MO… 3 ROOM  150   ANG MO… 01 TO …      68 New Ge…    1981 63 yea…
 7 2017-01 ANG MO… 3 ROOM  447   ANG MO… 04 TO …      68 New Ge…    1979 61 yea…
 8 2017-01 ANG MO… 3 ROOM  218   ANG MO… 04 TO …      67 New Ge…    1976 58 yea…
 9 2017-01 ANG MO… 3 ROOM  447   ANG MO… 04 TO …      68 New Ge…    1979 61 yea…
10 2017-01 ANG MO… 3 ROOM  571   ANG MO… 01 TO …      67 New Ge…    1979 61 yea…
# … with 146,773 more rows, 1 more variable: resale_price <dbl>, and
#   abbreviated variable names ¹​flat_type, ²​street_name, ³​storey_range,
#   ⁴​floor_area_sqm, ⁵​flat_model, ⁶​lease_commence_date, ⁷​remaining_lease

3.3 Because we need to focus on 3-room, 4-room, and 5-room house type so I fiter out the data that we need.

Flat_resale1 <- filter(Flat_resale,flat_type=="3 ROOM"|flat_type=="4 ROOM"|flat_type=="5 ROOM")

Flat_resale1

# A tibble: 132,977 × 11
   month   town    flat_…¹ block stree…² store…³ floor…⁴ flat_…⁵ lease…⁶ remai…⁷
   <chr>   <chr>   <chr>   <chr> <chr>   <chr>     <dbl> <chr>     <dbl> <chr>  
 1 2017-01 ANG MO… 3 ROOM  108   ANG MO… 01 TO …      67 New Ge…    1978 60 yea…
 2 2017-01 ANG MO… 3 ROOM  602   ANG MO… 01 TO …      67 New Ge…    1980 62 yea…
 3 2017-01 ANG MO… 3 ROOM  465   ANG MO… 04 TO …      68 New Ge…    1980 62 yea…
 4 2017-01 ANG MO… 3 ROOM  601   ANG MO… 01 TO …      67 New Ge…    1980 62 yea…
 5 2017-01 ANG MO… 3 ROOM  150   ANG MO… 01 TO …      68 New Ge…    1981 63 yea…
 6 2017-01 ANG MO… 3 ROOM  447   ANG MO… 04 TO …      68 New Ge…    1979 61 yea…
 7 2017-01 ANG MO… 3 ROOM  218   ANG MO… 04 TO …      67 New Ge…    1976 58 yea…
 8 2017-01 ANG MO… 3 ROOM  447   ANG MO… 04 TO …      68 New Ge…    1979 61 yea…
 9 2017-01 ANG MO… 3 ROOM  571   ANG MO… 01 TO …      67 New Ge…    1979 61 yea…
10 2017-01 ANG MO… 3 ROOM  534   ANG MO… 01 TO …      68 New Ge…    1980 62 yea…
# … with 132,967 more rows, 1 more variable: resale_price <dbl>, and
#   abbreviated variable names ¹​flat_type, ²​street_name, ³​storey_range,
#   ⁴​floor_area_sqm, ⁵​flat_model, ⁶​lease_commence_date, ⁷​remaining_lease

3.4 The task require us to analysis 2022’s data so I filter 2022’s data. The following steps can filter out the data that we need.

Flat_resale2 <- Flat_resale1 %>% 
  separate(month, c("year", "months"), "-")
Flat_resale2

# A tibble: 132,977 × 12
   year  months town       flat_…¹ block stree…² store…³ floor…⁴ flat_…⁵ lease…⁶
   <chr> <chr>  <chr>      <chr>   <chr> <chr>   <chr>     <dbl> <chr>     <dbl>
 1 2017  01     ANG MO KIO 3 ROOM  108   ANG MO… 01 TO …      67 New Ge…    1978
 2 2017  01     ANG MO KIO 3 ROOM  602   ANG MO… 01 TO …      67 New Ge…    1980
 3 2017  01     ANG MO KIO 3 ROOM  465   ANG MO… 04 TO …      68 New Ge…    1980
 4 2017  01     ANG MO KIO 3 ROOM  601   ANG MO… 01 TO …      67 New Ge…    1980
 5 2017  01     ANG MO KIO 3 ROOM  150   ANG MO… 01 TO …      68 New Ge…    1981
 6 2017  01     ANG MO KIO 3 ROOM  447   ANG MO… 04 TO …      68 New Ge…    1979
 7 2017  01     ANG MO KIO 3 ROOM  218   ANG MO… 04 TO …      67 New Ge…    1976
 8 2017  01     ANG MO KIO 3 ROOM  447   ANG MO… 04 TO …      68 New Ge…    1979
 9 2017  01     ANG MO KIO 3 ROOM  571   ANG MO… 01 TO …      67 New Ge…    1979
10 2017  01     ANG MO KIO 3 ROOM  534   ANG MO… 01 TO …      68 New Ge…    1980
# … with 132,967 more rows, 2 more variables: remaining_lease <chr>,
#   resale_price <dbl>, and abbreviated variable names ¹​flat_type,
#   ²​street_name, ³​storey_range, ⁴​floor_area_sqm, ⁵​flat_model,
#   ⁶​lease_commence_date

Flat_resale3 <- filter(Flat_resale2,year=="2022")
Flat_resale3

# A tibble: 24,372 × 12
   year  months town       flat_…¹ block stree…² store…³ floor…⁴ flat_…⁵ lease…⁶
   <chr> <chr>  <chr>      <chr>   <chr> <chr>   <chr>     <dbl> <chr>     <dbl>
 1 2022  01     ANG MO KIO 3 ROOM  320   ANG MO… 07 TO …      73 New Ge…    1977
 2 2022  01     ANG MO KIO 3 ROOM  225   ANG MO… 07 TO …      67 New Ge…    1978
 3 2022  01     ANG MO KIO 3 ROOM  331   ANG MO… 07 TO …      68 New Ge…    1981
 4 2022  01     ANG MO KIO 3 ROOM  534   ANG MO… 07 TO …      82 New Ge…    1980
 5 2022  01     ANG MO KIO 3 ROOM  578   ANG MO… 04 TO …      67 New Ge…    1980
 6 2022  01     ANG MO KIO 3 ROOM  452   ANG MO… 01 TO …      83 New Ge…    1979
 7 2022  01     ANG MO KIO 3 ROOM  560   ANG MO… 01 TO …      67 New Ge…    1980
 8 2022  01     ANG MO KIO 3 ROOM  435   ANG MO… 04 TO …      67 New Ge…    1979
 9 2022  01     ANG MO KIO 3 ROOM  435   ANG MO… 04 TO …      67 New Ge…    1979
10 2022  01     ANG MO KIO 3 ROOM  560   ANG MO… 10 TO …      67 New Ge…    1980
# … with 24,362 more rows, 2 more variables: remaining_lease <chr>,
#   resale_price <dbl>, and abbreviated variable names ¹​flat_type,
#   ²​street_name, ³​storey_range, ⁴​floor_area_sqm, ⁵​flat_model,
#   ⁶​lease_commence_date

4. Creating the Visualisation

4.1 I want to compare differnt house type’s resale_price’s median. But I need to decrease the influence of house size. So, I create one more column to store the average price/m² and named it AvgPrice.

Flat_resale4 <- mutate(Flat_resale3,AvgPrice=resale_price/floor_area_sqm)
Flat_resale4

# A tibble: 24,372 × 13
   year  months town       flat_…¹ block stree…² store…³ floor…⁴ flat_…⁵ lease…⁶
   <chr> <chr>  <chr>      <chr>   <chr> <chr>   <chr>     <dbl> <chr>     <dbl>
 1 2022  01     ANG MO KIO 3 ROOM  320   ANG MO… 07 TO …      73 New Ge…    1977
 2 2022  01     ANG MO KIO 3 ROOM  225   ANG MO… 07 TO …      67 New Ge…    1978
 3 2022  01     ANG MO KIO 3 ROOM  331   ANG MO… 07 TO …      68 New Ge…    1981
 4 2022  01     ANG MO KIO 3 ROOM  534   ANG MO… 07 TO …      82 New Ge…    1980
 5 2022  01     ANG MO KIO 3 ROOM  578   ANG MO… 04 TO …      67 New Ge…    1980
 6 2022  01     ANG MO KIO 3 ROOM  452   ANG MO… 01 TO …      83 New Ge…    1979
 7 2022  01     ANG MO KIO 3 ROOM  560   ANG MO… 01 TO …      67 New Ge…    1980
 8 2022  01     ANG MO KIO 3 ROOM  435   ANG MO… 04 TO …      67 New Ge…    1979
 9 2022  01     ANG MO KIO 3 ROOM  435   ANG MO… 04 TO …      67 New Ge…    1979
10 2022  01     ANG MO KIO 3 ROOM  560   ANG MO… 10 TO …      67 New Ge…    1980
# … with 24,362 more rows, 3 more variables: remaining_lease <chr>,
#   resale_price <dbl>, AvgPrice <dbl>, and abbreviated variable names
#   ¹​flat_type, ²​street_name, ³​storey_range, ⁴​floor_area_sqm, ⁵​flat_model,
#   ⁶​lease_commence_date
…
From above chart, we can see that before storey 37, the higher storey , the green color occupied more. Which means the higher storey, the higher AvgPrice.

5. Exploring one of house type: 4-Room type.

Because this house type is very popular in SG so we want to explore more about this type.

5.1 Data prepare: Filter out the 4-Room type data.

Flat_resale5 <- filter(Flat_resale4,flat_type=="4 ROOM")
Flat_resale5

# A tibble: 11,311 × 13
   year  months town       flat_…¹ block stree…² store…³ floor…⁴ flat_…⁵ lease…⁶
   <chr> <chr>  <chr>      <chr>   <chr> <chr>   <chr>     <dbl> <chr>     <dbl>
 1 2022  01     ANG MO KIO 4 ROOM  438   ANG MO… 10 TO …      92 New Ge…    1979
 2 2022  01     ANG MO KIO 4 ROOM  556   ANG MO… 13 TO …      92 New Ge…    1980
 3 2022  01     ANG MO KIO 4 ROOM  419   ANG MO… 07 TO …      99 New Ge…    1979
 4 2022  01     ANG MO KIO 4 ROOM  466   ANG MO… 04 TO …      93 New Ge…    1984
 5 2022  01     ANG MO KIO 4 ROOM  472   ANG MO… 01 TO …      92 New Ge…    1979
 6 2022  01     ANG MO KIO 4 ROOM  405   ANG MO… 01 TO …      92 New Ge…    1979
 7 2022  01     ANG MO KIO 4 ROOM  547   ANG MO… 01 TO …      92 New Ge…    1981
 8 2022  01     ANG MO KIO 4 ROOM  415   ANG MO… 01 TO …      92 New Ge…    1979
 9 2022  01     ANG MO KIO 4 ROOM  324   ANG MO… 04 TO …      98 New Ge…    1978
10 2022  01     ANG MO KIO 4 ROOM  121   ANG MO… 10 TO …      92 New Ge…    1978
# … with 11,301 more rows, 3 more variables: remaining_lease <chr>,
#   resale_price <dbl>, AvgPrice <dbl>, and abbreviated variable names
#   ¹​flat_type, ²​street_name, ³​storey_range, ⁴​floor_area_sqm, ⁵​flat_model,
#   ⁶​lease_commence_date

5.2 The median of resale_price in different towns.

In order to explore the price in different towns, we need to group by every town and calculate the median of resale_price:

Flat_resale6 <- Flat_resale5 %>%
                group_by(town) %>%
                summarize(median_price = median(resale_price))
Flat_resale6

# A tibble: 26 × 2
   town          median_price
   <chr>                <dbl>
 1 ANG MO KIO          513000
 2 BEDOK               470000
 3 BISHAN              640000
 4 BUKIT BATOK         495000
 5 BUKIT MERAH         750000
 6 BUKIT PANJANG       470000
 7 BUKIT TIMAH         618444
 8 CENTRAL AREA        849044
 9 CHOA CHU KANG       488000
10 CLEMENTI            660000
# … with 16 more rows
…
